{
  "internet": "enp0s3",
  "lan": "enp0s8",
  "wan": [ 
    { "interface": "enp0s9", "rate": "50mbit", "delay": "1ms", "loss": "0%" }, 
    { "interface": "enp0s10", "rate": "10mbit", "delay": "250ms", "loss": "1%" } 
  ],
  "vlan": [
    {
      "id": 20
    },
    {
      "id": 10,
      "router": [
        {
          "address": "192.168.10.2/24", "upstream": "192.168.10.1",
          "subnet": [
            { "id": 5000, "address": "10.43.5.1/24" }
          ]
        },
        {
          "address": "192.168.10.3/24", "upstream": "192.168.10.1",
          "subnet": [
            { "id": 5001, "address": "10.37.5.1/24" },
            { "id": 5002, "address": "10.99.1.1/24" }
          ]
        }
      ]
    }
  ],
  "device": [
    { "name": "Grumpy", "use": 20 },
    { "name": "Dopey", "use": 20 },
    { "name": "Doc", "use": 5000 },
    { "name": "Happy", "use": 5001 },
    { "name": "Sneezy", "use": 5001 },
    { "name": "Sleepy", "use": 5002 }
  ]
}
